County-Level Rurality Data for the United States — county_rurality • rurality
…
60-79: Rural

40-59: Mixed

20-39: Suburban

0-19: Urban

    Examples

# View the data
county_rurality
#> # A tibble: 3,235 × 24
#>    fips  state_fips county_fips state_abbr county_name     pop_2020 acs_pop
#>    <chr> <chr>      <chr>       <chr>      <chr>              <dbl>   <dbl>
#>  1 01001 01         001         AL         Autauga County     58805   58761
#>  2 01003 01         003         AL         Baldwin County    231767  233420
#>  3 01005 01         005         AL         Barbour County     25223   24877
#>  4 01007 01         007         AL         Bibb County        22293   22251
#>  5 01009 01         009         AL         Blount County      59134   59077
#>  6 01011 01         011         AL         Bullock County     10357   10328
#>  7 01013 01         013         AL         Butler County      19051   18981
#>  8 01015 01         015         AL         Calhoun County    116441  116162
#>  9 01017 01         017         AL         Chambers County    34772   34612
#> 10 01019 01         019         AL         Cherokee County    24971   25069
#> # ℹ 3,225 more rows
#> # ℹ 17 more variables: land_area_sqmi <dbl>, pop_density <dbl>,
#> #   rucc_2023 <int>, rucc_description <chr>, omb_designation <chr>, lat <dbl>,
#> #   lng <dbl>, dist_large_metro <dbl>, dist_medium_metro <dbl>,
#> #   dist_small_metro <dbl>, rucc_score <dbl>, density_score <dbl>,
#> #   distance_score <dbl>, rurality_score <dbl>, rurality_classification <chr>,
#> #   median_income <dbl>, median_age <dbl>

# Filter to rural counties
library(dplyr)
#> 
#> Attaching package: ‘dplyr’
#> The following objects are masked from ‘package:stats’:
#> 
#>     filter, lag
#> The following objects are masked from ‘package:base’:
#> 
#>     intersect, setdiff, setequal, union
county_rurality |> filter(rurality_classification == "Very Rural")
#> # A tibble: 535 × 24
#>    fips  state_fips county_fips state_abbr county_name          pop_2020 acs_pop
#>    <chr> <chr>      <chr>       <chr>      <chr>                   <dbl>   <dbl>
#>  1 01035 01         035         AL         Conecuh County          11597   11576
#>  2 02013 02         013         AK         Aleutians East Boro…     3420    3407
#>  3 02016 02         016         AK         Aleutians West Cens…     5232    5219
#>  4 02050 02         050         AK         Bethel Census Area      18666   18538
#>  5 02060 02         060         AK         Bristol Bay Borough       844     854
#>  6 02063 02         063         AK         Chugach Census Area      7102    7000
#>  7 02066 02         066         AK         Copper River Census…     2617    2614
#>  8 02068 02         068         AK         Denali Borough           1619    2101
#>  9 02070 02         070         AK         Dillingham Census A…     4857    4854
#> 10 02100 02         100         AK         Haines Borough           2080    2079
#> # ℹ 525 more rows
#> # ℹ 17 more variables: land_area_sqmi <dbl>, pop_density <dbl>,
#> #   rucc_2023 <int>, rucc_description <chr>, omb_designation <chr>, lat <dbl>,
#> #   lng <dbl>, dist_large_metro <dbl>, dist_medium_metro <dbl>,
#> #   dist_small_metro <dbl>, rucc_score <dbl>, density_score <dbl>,
#> #   distance_score <dbl>, rurality_score <dbl>, rurality_classification <chr>,
#> #   median_income <dbl>, median_age <dbl>

# Arkansas counties
county_rurality |> filter(state_abbr == "AR")
#> # A tibble: 75 × 24
#>    fips  state_fips county_fips state_abbr county_name     pop_2020 acs_pop
#>    <chr> <chr>      <chr>       <chr>      <chr>              <dbl>   <dbl>
#>  1 05001 05         001         AR         Arkansas County    17149   17024
#>  2 05003 05         003         AR         Ashley County      19062   19018
#>  3 05005 05         005         AR         Baxter County      41627   41801
#>  4 05007 05         007         AR         Benton County     284333  286528
#>  5 05009 05         009         AR         Boone County       37373   37662
#>  6 05011 05         011         AR         Bradley County     10545   10461
#>  7 05013 05         013         AR         Calhoun County      4739    4773
#>  8 05015 05         015         AR         Carroll County     28260   28362
#>  9 05017 05         017         AR         Chicot County      10208   10234
#> 10 05019 05         019         AR         Clark County       21446   21469
#> # ℹ 65 more rows
#> # ℹ 17 more variables: land_area_sqmi <dbl>, pop_density <dbl>,
#> #   rucc_2023 <int>, rucc_description <chr>, omb_designation <chr>, lat <dbl>,
#> #   lng <dbl>, dist_large_metro <dbl>, dist_medium_metro <dbl>,
#> #   dist_small_metro <dbl>, rucc_score <dbl>, density_score <dbl>,
#> #   distance_score <dbl>, rurality_score <dbl>, rurality_classification <chr>,
#> #   median_income <dbl>, median_age <dbl>
…
