…
| Score  | Classification |
|--------|----------------|
| 80–100 | Very Rural     |
| 60–79  | Rural          |
| 40–59  | Mixed          |
| 20–39  | Suburban       |
| 0–19   | Urban          |

## Browsing the full dataset

The `county_rurality` dataset contains all 3,235 U.S. counties:

``` r
county_rurality
#> # A tibble: 3,235 × 24
#>    fips  state_fips county_fips state_abbr county_name     pop_2020 acs_pop
#>    <chr> <chr>      <chr>       <chr>      <chr>              <dbl>   <dbl>
#>  1 01001 01         001         AL         Autauga County     58805   58761
#>  2 01003 01         003         AL         Baldwin County    231767  233420
#>  3 01005 01         005         AL         Barbour County     25223   24877
#>  4 01007 01         007         AL         Bibb County        22293   22251
#>  5 01009 01         009         AL         Blount County      59134   59077
#>  6 01011 01         011         AL         Bullock County     10357   10328
#>  7 01013 01         013         AL         Butler County      19051   18981
#>  8 01015 01         015         AL         Calhoun County    116441  116162
#>  9 01017 01         017         AL         Chambers County    34772   34612
#> 10 01019 01         019         AL         Cherokee County    24971   25069
#> # ℹ 3,225 more rows
#> # ℹ 17 more variables: land_area_sqmi <dbl>, pop_density <dbl>,
#> #   rucc_2023 <int>, rucc_description <chr>, omb_designation <chr>, lat <dbl>,
#> #   lng <dbl>, dist_large_metro <dbl>, dist_medium_metro <dbl>,
#> #   dist_small_metro <dbl>, rucc_score <dbl>, density_score <dbl>,
#> #   distance_score <dbl>, rurality_score <dbl>, rurality_classification <chr>,
#> #   median_income <dbl>, median_age <dbl>
```
…
